<svg width="58" height="58" viewBox="0 0 58 58" fill="none" xmlns="http://www.w3.org/2000/svg">
<rect width="58" height="58" fill="#C4C4C4"/>
<path d="M33 15C31.5946 14.9997 30.2087 15.3286 28.9532 15.9603C27.6978 16.5921 26.6079 17.5091 25.7707 18.6379C24.9335 19.7667 24.3723 21.076 24.1322 22.4607C23.8921 23.8455 23.9797 25.2672 24.388 26.612L14 37V43H20L30.388 32.612C31.6259 32.9878 32.9303 33.0922 34.2122 32.9183C35.4941 32.7443 36.7235 32.2961 37.8165 31.604C38.9095 30.912 39.8405 29.9925 40.546 28.9081C41.2515 27.8237 41.7149 26.6 41.9047 25.3203C42.0945 24.0407 42.0062 22.7351 41.6458 21.4926C41.2854 20.2502 40.6613 19.1 39.8162 18.1206C38.9711 17.1411 37.9247 16.3553 36.7485 15.8168C35.5722 15.2783 34.2937 14.9997 33 15ZM33 31C32.3115 30.9996 31.6268 30.8979 30.968 30.698L29.821 30.35L28.974 31.197L25.793 34.378L24.414 33L23 34.414L24.379 35.793L22.793 37.379L21.414 36L20 37.414L21.379 38.793L19.172 41H16V37.828L25.802 28.026L26.65 27.179L26.302 26.032C25.8746 24.623 25.9023 23.1151 26.3814 21.7228C26.8604 20.3304 27.7662 19.1246 28.97 18.2768C30.1739 17.429 31.6144 16.9824 33.0867 17.0005C34.559 17.0186 35.9881 17.5006 37.1707 18.3777C38.3533 19.2549 39.2292 20.4826 39.6738 21.8863C40.1184 23.29 40.1091 24.7981 39.6471 26.1962C39.1852 27.5942 38.2941 28.8111 37.1008 29.6735C35.9074 30.5359 34.4724 31.0001 33 31Z" fill="black"/>
<path d="M34 25C35.1046 25 36 24.1046 36 23C36 21.8954 35.1046 21 34 21C32.8954 21 32 21.8954 32 23C32 24.1046 32.8954 25 34 25Z" fill="black"/>
</svg>
